....................
----------------------------------------------------------------------
Ran 20 tests in 0.031s

OK
Name             Stmts   Miss Branch BrPart  Cover   Missing
------------------------------------------------------------
Collatz.py          30      0      8      0   100%
TestCollatz.py      86      0      0      0   100%
------------------------------------------------------------
TOTAL              116      0      8      0   100%
