.....................
----------------------------------------------------------------------
Ran 21 tests in 0.263s

OK
Name             Stmts   Miss Branch BrPart  Cover   Missing
------------------------------------------------------------
Collatz.py          61      0     22      0   100%
TestCollatz.py      89      0      0      0   100%
------------------------------------------------------------
TOTAL              150      0     22      0   100%
